\relax 
\@writefile{toc}{\contentsline {section}{\numberline {1}Frama C is fun}{1}}
\@writefile{toc}{\contentsline {section}{\numberline {2}Detailed Description of Sub-pieces}{1}}
\@writefile{toc}{\contentsline {subsection}{\numberline {2.1}Memory Cache}{1}}
\@writefile{toc}{\contentsline {section}{\numberline {3}Conclusions}{1}}
